﻿"tpaservices[back][1]","tpaservices[back][2]","tpaservices[logs][1]","tpaservices[logs][2]","tpaservices[dns][1]","tpaservices[dns][2]","tpaservices[email][1]","tpaservices[email][2]","tpaservices[grafa][1]","tpaservices[grafa][2]","tpaservices[ldap][1]","tpaservices[ldap][2]","tpaservices[nagio][1]","tpaservices[nagio][2]","tpaservices[wkd][1]","tpaservices[wkd][2]","tpaservices[pgsql][1]","tpaservices[pgsql][2]","tpaservices[stati][1]","tpaservices[stati][2]","tpaservices[docs][1]","tpaservices[docs][2]","tpaservices[ganet][1]","tpaservices[ganet][2]","tpaservices[cache][1]","tpaservices[cache][2]","tpaservices[tls][1]","tpaservices[tls][2]","metrics[check][1]","metrics[check][2]","metrics[colle][1]","metrics[colle][2]","metrics[surv][1]","metrics[surv][2]","metrics[metri][1]","metrics[metri][2]","metrics[perf][1]","metrics[perf][2]","metrics[metbo][1]","metrics[metbo][2]","metrics[onioo][1]","metrics[onioo][2]","websites[blog][1]","websites[blog][2]","websites[www][1]","websites[www][2]","websites[news][1]","websites[news][2]","websites[style][1]","websites[style][2]","websites[supp][1]","websites[supp][2]","websites[commu][1]","websites[commu][2]","websites[tbman][1]","websites[tbman][2]","websites[peopl][1]","websites[peopl][2]","websites[resea][1]","websites[resea][2]","websites[stem][1]","websites[stem][2]","websites[archi][1]","websites[archi][2]","websites[bridg][1]","websites[bridg][2]","websites[conse][1]","websites[conse][2]","websites[dist][1]","websites[dist][2]","websites[extra][1]","websites[extra][2]","websites[fpcen][1]","websites[fpcen][2]","websites[getor][1]","websites[getor][2]","websites[media][1]","websites[media][2]","websites[onion][1]","websites[onion][2]","services[btcpy][1]","services[btcpy][2]","services[BBB][1]","services[BBB][2]","services[deb][1]","services[deb][2]","services[gitlb][1]","services[gitlb][2]","services[gitrw][1]","services[gitrw][2]","services[gitwe][1]","services[gitwe][2]","services[irc][1]","services[irc][2]","services[lists][1]","services[lists][2]","services[cloud][1]","services[cloud][2]","services[rt][1]","services[rt][2]","services[svn][1]","services[svn][2]","services[schle][1]","services[schle][2]","services[DocTo][1]","services[DocTo][2]","services[CRM][1]","services[CRM][2]","services[exo][1]","services[exo][2]","services[jenki][1]","services[jenki][2]","services[rpm][1]","services[rpm][2]","services[testn][1]","services[testn][2]","services[trans][1]","services[trans][2]"
"","","","","","","A6","A1","","","","","","","","","","","","","","","","","","","","","","","L004","A2","","","L005","A2","L003","A2","","","L004","A2","A4","A1","","","","","","","","","","","","","A4","A2","","","A3","A2","","","","","A5","A2","","","","","","","","","","","","","","","A5","A2","A5","A2","A6","A2","A6","A2","A5","A2","","","A6","A2","A4","A2","","","","","A3","A1","A5","A2","","","","","","","","","","","",""
"","","","","","","","","","","","","","","","","","","","","","","","","","","","","","","","","","","","","","","","","","","","","","","","","","","","","","","","","","","","","","","","","","","","","","","","","","","","","","","","","","","","","","","","","","","","","","","","","","","","","","","","","","","","","","","","","","","","","",""
"","","","","","","","","","","","","","","","","","","","","","","","","","","","","L003","A2","L002","A2","L001","","L004","A2","L003","A2","","","","","A4","A1","A5","A1","A1","","A1","","A4","A1","A4","A2","A3","A1","A3","A2","A1","","A4","A2","A2","A2","A3","A2","A3","A2","A2","A2","A1","","A1","","A1","","A1","","A2","A2","A1","","A3","A2","A4","A2","A4","A1","A3","A2","A3","A2","A3","A2","A2","A2","A1","","A1","","A1","","A2","A1","A1","","A1","","A2","A2","A1","","A1","","A1","","A1",""
"","","","","","","","","","","","","","","","","","","","","","","","","","","","","","","","","","","","","","","","","","","","","","","","","","","","","","","","","","","","","","","","","","","","","","","","","","","","","","","","","","","","","","","","","","","","","","","","","","","","","","","","","","","","","","","","","","","","","",""
"","","","","","","","","","","","","","","","","","","","","","","","","","","","","","","L004","A2","L002","A2","L004","A2","","","","","","","A3","A1","A3","A2","A1","","A2","A2","A1","","A1","","A3","A2","A3","A2","A1","","A1","","A1","","A3","A2","A1","","A1","","A1","","A1","","A4","A2","A1","","A1","","","","A4","A2","","","A6","A2","A5","A2","A5","A2","","","A6","A2","A4","A2","A1","","A1","","A1","","A1","","","","","","","","A1","","A1","","A3","A2"
"","","","","","","","","","","","","","","","","","","","","","","","","","","","","","","","","","","","","","","","","","","","","","","","","","","","","","","","","","","","","","","","","","","","","","","","","","","","","","","","","","","","","","","","","","","","","","","","","","","","","","","","","","","","","","","","","","","","","",""
"","","","","","","","","","","","","","","","","","","","","","","","","","","","","","","","","","","","","","","","","","","","","","","","","","","","","","","","","","","","","","","","","","","","","","","","","","","","","","","","","","","","","","","","","","","","","","","","","","","","","","","","","","","","","","","","","","","","","",""
"","","","","","","","","","","","","","","","","","","","","","","","","","","","","","","","","","","","","","","","","","","","","","","","","","","","","","","","","","","","","","","","","","","","","","","","","","","","","","","","","","","","","","","","","","","","","","","","","","","","","","","","","","","","","","","","","","","","","",""
"A1","","A1","","A1","","A6","A1","A1","","A1","","A1","","A1","","A1","","A1","","A1","","A1","","A1","","A1","","L001","","L001","","L002","","L004","A2","L001","","L001","","L001","","A5","A1","A5","A2","A4","A2","A4","","A4","","A4","","A4","","A1","","A1","","A1","","A1","","A1","","A1","","A1","","A1","","A1","","A1","","A1","","A1","","","","A5","A2","A1","","A5","A2","A1","","A1","","A1","A1","A4","","A4","A1","A5","A1","A1","","A1","","A1","","A6","A1","A1","","A1","","A1","","A1","","A1",""
"","","","","","","","","","","","","","","","","","","","","","","","","","","","","","","","","","","","","","","","","","","","","","","","","","","","","","","","","","","","","","","","","","","","","","","","","","","","","","","","","","","","","","","","","","","","","","","","","","","","","","","","","","","","","","","","","","","","","",""
"","","","","","","","","","","","","","","","","","","","","","","","","","","","","","","","","","","","","","","","","","","","","","","","","","","","","","","","","","","","","","","","","","","","","","","","","","","","","","","","","","","","","","","","","","","","","","","","","","","","","","","","","","","","","","","","","","","","","",""
"A1","","A1","","A1","","","","A1","","A2","","A1","","A2","","A1","","A1","","A2","","A1","","A1","","A1","","L002","A2","L004","A2","L001","","L003","A2","L001","","L001","","L001","","A3","A2","A3","A2","A1","","A1","","A3","A2","A2","A2","A2","","A2","A2","A1","","A3","A2","","","A1","","A4","A2","A2","A2","","","","","","","","","","","A1","","A3","A2","A4","A2","A5","A2","A4","A2","A3","A2","A4","A2","A4","A2","A3","A2","","","A1","","A1","","A1","","A1","","A1","","A1","","A1","","","","A1",""
"","","","","","","","","","","","","","","","","","","","","","","","","","","","","","","","","","","","","","","","","","","","","","","","","","","","","","","","","","","","","","","","","","","","","","","","","","","","","","","","","","","","","","","","","","","","","","","","","","","","","","","","","","","","","","","","","","","","","",""
"","","","","","","A5","A1","","","","","","","","","","","","","","","","","","","","","","","","","","","L005","A2","","","","","","","A5","A2","A5","A2","","","","","","","A5","A2","","","","","","","","","","","","","","","","","","","","","","","","","","","","","","","","","A6","A2","","","A5","A2","","","A5","A2","","","","","","","","","","","","","","","","","","","","","",""
"A1","","A1","","A1","","A1","","A2","A2","A2","A2","A1","","A1","","A1","","A1","","A3","A2","A1","","A1","","A1","","L002","","L001","","L001","","L004","A2","L001","","L001","","L001","","A3","A2","A4","A2","A1","","A1","","A3","","A3","A2","A3","A2","A2","A2","A2","A2","A1","","A1","","A3","A2","A3","A2","A1","","A1","","A1","","A1","","A2","A1","A2","A1","A1","","A5","A2","A3","A1","A6","A2","A4","A2","A5","A2","A1","","A5","A2","A5","A2","A3","A1","A1","","A1","","A1","","A1","","A1","","A1","","A1","","A1","","A4","A2"
"","","","","","","","","","","","","","","","","","","","","","","","","","","","","","","","","","","","","","","","","","","","","","","","","","","","","","","","","","","","","","","","","","","","","","","","","","","","","","","","","","","","","","","","","","","","","","","","","","","","","","","","","","","","","","","","","","","","","",""
"A4","A1","","","","","","","","","","","","","","","","","","","","","","","","","","","","","","","","","","","","","","","","","","","","","","","","","","","","","","","","","","","","","","","","","","","","","","","","","","","","","","","","","","","","","","","","","","","","","","","","","","","","","","","","","","","","","","","","","","","",""
"","","","","","","","","","","","","","","","","","","","","","","","","","","","","","","","","","","","","","","","","","","","","","","","","","","","","","","","","","","","","","","","","","","","","","","","","","","","","","","","","","","","","","","","","","","","","","","","","","","","","","","","","","","","","","","","","","","","","",""
"A1","","A1","","A1","","A6","A2","A1","","A2","A2","A1","","A1","","A1","","A3","A2","A2","A2","A1","","A1","","A1","","L001","","L004","A2","L001","","L004","A2","L001","","L001","","L003","A2","A3","A1","A4","A2","A1","","A1","","A3","A2","A1","","A3","A2","A4","A2","A1","","A4","A2","A3","A2","A1","","A5","A2","A3","A2","A2","A2","A2","A1","A1","","A1","","A2","A2","A1","","A4","A2","A1","","A5","A2","A5","A2","A3","A2","A6","A2","A6","A2","A2","A2","A1","","A1","","A1","","A4","A2","A1","","A1","","A1","","A1","","A1","","A1",""
"A1","A2","A1","A2","A6","A2","A6","A1","A1","A2","A4","A2","A1","A2","A2","A2","A1","A2","A4","A2","A1","A2","A4","A2","A1","A2","A1","A2","L001","A2","L002","A2","L002","A2","L003","A2","L003","A2","L001","A2","L001","A2","A4","A1","A3","A2","A1","A2","A1","A2","A1","A2","A1","A2","A1","A2","A4","A2","A2","A1","A1","A2","A3","A2","A1","A2","A1","A2","A4","A2","A1","A2","A1","A2","A1","A2","A1","A2","A1","A2","A1","A2","A5","A2","A2","A2","A6","A2","A6","A2","A5","A2","A1","A2","A5","A2","A3","A1","A1","A2","A1","A2","A4","A1","A1","A2","A1","A2","A1","A2","A3","A1","A2","A2","A1","A2","A1","A2"
"","","","","","","","","","","","","","","","","","","","","","","","","","","","","","","","","","","","","","","","","","","","","","","","","","","","","","","","","","","","","","","","","","","","","","","","","","","","","","","","","","","","","","","","","","","","","","","","","","","","","","","","","","","","","","","","","","","","","",""
"","","","","","","","","","","","","","","","","","","","","","","","","","","","","","","","","","","","","","","","","","","","","","","","","","","","","","","","","","","","","","","","","","","","","","","","","","","","","","","","","","","","","","","","","","","","","","","","","","","","","","","","","","","","","","","","","","","","","",""
"","","","","","","A6","A1","","","","","","","A4","A2","","","A5","A2","A3","A2","","","A5","A2","","","L003","A2","L003","A2","L004","A2","L005","A2","","","","","L004","A2","A5","A1","A5","A2","A3","A2","A2","A2","A5","A2","A5","A2","A5","A2","","","A2","A2","","","","","A5","A2","","","","","","","","","A5","A2","A3","A1","A5","A1","","","A5","A2","","","A6","A2","A5","A2","A5","A2","A1","","A5","A2","A5","A2","A6","A1","","","","","","","","","","","","","","","","","A5","A2"
"","A2","","","","","","","","","","A2","A5","A2","","","","A2","","","","","","","","A2","","","","","","","","","","","","","","","","","A3","","A3","","A3","","A2","","A1","","A1","","A1","","A2","","A2","","A3","","A3","","A2","","A3","","A3","","A2","","A1","","A1","","A1","","A1","","","","","","","","","","","","","","","","","","","","","","","","","","","","","","","","","","","","","","",""
"","","","","","","","","","","","","","","","","","","","","","","","","","","","","","","","","","","","","","","","","","","","","","","","","","","","","","","","","","","","","","","","","","","","","","","","","","","","","","","","","","","","","","","","","","","","","","","","","","","","","","","","","","","","","","","","","","","","","",""
"","","","","A1","","A5","A2","A5","A2","A3","A2","A1","","A1","","A1","","A1","","A3","A2","","","A1","","A1","","L003","A2","L004","A2","L001","","L004","A2","L001","","L001","","L001","","A4","A1","A4","A2","A1","","A2","A2","A3","A2","A3","A2","A3","A2","A3","A2","A3","A2","A2","A2","A1","","A4","A2","A1","","A1","","A1","","A1","","A3","A2","A1","","A2","A2","A1","","A4","A2","A1","","A5","A2","A1","","A4","A2","A1","","A4","A2","A4","A2","A2","A2","A1","","A1","","A1","","A1","","A1","","A1","","A1","","A1","","A1",""

