Date,release,count
2019-03-01,buster,0
2019-03-01,jessie,1
2019-03-01,stretch,74
2019-08-15,buster,25
2019-08-15,jessie,1
2019-08-15,stretch,49
2019-10-07,buster,35
2019-10-07,jessie,1
2019-10-07,stretch,43
2019-10-08,buster,40
2019-10-08,jessie,1
2019-10-08,stretch,38
2019-10-09,buster,46
2019-10-09,jessie,1
2019-10-09,stretch,33
2019-10-23,buster,46
2019-10-23,jessie,1
2019-10-23,stretch,31
2019-11-25,buster,46
2019-11-25,jessie,1
2019-11-25,stretch,29
2020-01-13,buster,48
2020-01-13,jessie,1
2020-01-13,stretch,28
2020-01-29,buster,50
2020-01-29,jessie,1
2020-01-29,stretch,26
2020-03-10,buster,54
2020-03-10,jessie,1
2020-03-10,stretch,22
2020-04-09,jessie,0
2020-04-14,buster,55
2020-04-14,jessie,0
2020-04-14,stretch,21
2020-05-11,buster,57
2020-05-11,jessie,0
2020-05-11,stretch,17
2020-05-25,buster,61
2020-05-25,jessie,0
2020-05-25,stretch,14
2020-06-10,buster,62
2020-06-10,stretch,12
2020-07-01,buster,69
2020-07-01,stretch,3
2020-10-30,buster,74
2020-10-30,stretch,2
2020-11-18,buster,76
2020-11-18,stretch,2
2021-08-26,bullseye,1
2021-08-26,buster,86
2021-08-26,stretch,1
2021-10-08,bullseye,4
2021-10-08,buster,86
2021-10-08,stretch,1
2021-11-11,bullseye,4
2021-11-11,buster,84
2021-11-11,stretch,1
2021-11-17,bullseye,4
2021-11-17,buster,85
2021-11-17,stretch,0
2022-01-11,bullseye,12
2022-01-11,buster,77
2022-02-14,bullseye,12
2022-02-14,buster,76
2022-04-04,bullseye,18
2022-04-04,buster,73
2022-04-05,bullseye,39
2022-04-05,buster,52
2022-05-10,bullseye,54
2022-05-10,buster,39
2022-06-06,bullseye,70
2022-06-06,buster,26
2022-07-25,bullseye,83
2022-07-25,buster,13
2022-08-29,bullseye,84
2022-08-29,buster,12
2022-10-03,bullseye,86
2022-10-03,buster,12
2022-11-08,bullseye,83
2022-11-08,buster,12
2022-12-05,bullseye,83
2022-12-05,buster,11
2023-02-06,bullseye,84
2023-02-06,buster,11
2023-03-13,bullseye,86
2023-03-13,buster,11
2023-04-08,bookworm,1
2023-04-08,bullseye,75
2023-04-08,buster,9
2023-05-08,bookworm,1
2023-05-08,bullseye,77
2023-05-08,buster,7
2023-06-05,bookworm,2
2023-06-05,bullseye,78
2023-06-05,buster,6
2023-06-15,bookworm,4
2023-06-15,bullseye,76
2023-06-15,buster,6
2023-08-29,bookworm,6
2023-08-29,bullseye,75
2023-08-29,buster,6
2023-09-26,bookworm,41
2023-09-26,bullseye,42
2023-09-26,buster,5
2023-10-02,bookworm,42
2023-10-02,bullseye,42
2023-10-02,buster,5
2023-11-21,bookworm,47
2023-11-21,bullseye,37
2023-11-21,buster,4
2023-12-11,bookworm,47
2023-12-11,bullseye,37
2023-12-11,buster,4
2024-01-22,bookworm,48
2024-01-22,bullseye,36
2024-01-22,buster,4
2024-01-31,bookworm,72
2024-01-31,bullseye,12
2024-01-31,buster,4
