digraph email {
        label="Email architecture TPA-RFC-15 plan, torproject.org, April 2022"
        labelloc=bottom
        node [shape=rectangle]

        // a user
        user [shape=triangle]

        // all other boxes that don't do anything special with email
        tpoboxes [label="other TPA hosts"]
        // hosts that manage and send their own email
        mailhosts [color="orange" label="mail hosts\ngitlab, RT, CiviCRM"]
        submission [color="orange"]
        // legacy
        eugeni [color="red" label="eugeni\nmailman, schleuder"]
        // new machines
        relay [color="green" label="submission-tls"]
        mx [color="green"]
        mailbox [color="green" label="mailbox\nIMAP, webmail"]
        // external boxes
        dotdotdot [label="internet\nnon TPO mail hosts", shape=ellipse]
        // other hosts that currently masquerade as us
        masquerade [label="impersonators\nriseup, gmail, etc"]

        // all relations

        // mx receives email from everywhere and forwards it
        dotdotdot -> mx [label="SMTP"]
        mx -> { mailbox, eugeni, mailhosts, masquerade } [label="SMTP"]
        dotdotdot -> mailhosts [label="SMTP"]
        // user interacts with those
        user -> mailhosts [label="HTTP"]
        user -> submission [label="SMTP"]
        user -> mailbox [label="IMAP, HTTP"]
        user -> eugeni [label="HTTP"]
        // those all relay mail to the outside
        { submission, mailhosts, eugeni, relay } -> dotdotdot [label="SMTP"]
        // except those, who still go through the relay
        tpoboxes -> relay [label="SMTPS"]
        masquerade -> dotdotdot [style=tapered color=red label="SMTP, failing"]
}
